%YAML 1.1
%TAG !u! tag:unity3d.com,2011:
--- !u!1045 &1
EditorBuildSettings:
  m_ObjectHideFlags: 0
  serializedVersion: 2
  m_Scenes:
  - enabled: 1
    path: Assets/title.unity
    guid: 605773d8cd7af014ba21ca5aff68771e
  - enabled: 1
    path: Assets/gameplay.unity
    guid: 0c013f5a52692f747aa4fe30234ce57d
